/home/cpe/Desktop/project/JEE_repo/5irc_jee/MiddleAuthWatcherEJBClient/src/main/java/util/Ressource.java
/home/cpe/Desktop/project/JEE_repo/5irc_jee/MiddleAuthWatcherEJBClient/src/main/java/common/UserRepository.java
/home/cpe/Desktop/project/JEE_repo/5irc_jee/MiddleAuthWatcherEJBClient/src/main/java/common/UserModel.java
/home/cpe/Desktop/project/JEE_repo/5irc_jee/MiddleAuthWatcherEJBClient/src/main/java/common/UserManager.java
/home/cpe/Desktop/project/JEE_repo/5irc_jee/MiddleAuthWatcherEJBClient/src/main/java/fr/cpe/ejb/MessageHandler.java
/home/cpe/Desktop/project/JEE_repo/5irc_jee/MiddleAuthWatcherEJBClient/src/main/java/fr/cpe/ejb/MessageReceiver.java
